{"_links":{"self":{"href":"https://api.qa.fitpay.ninja/users?limit=10&offset=0"},"last":{"href":"https://api.qa.fitpay.ninja/users?limit=10&offset=90"},"next":{"href":"https://api.qa.fitpay.ninja/users?limit=10&offset=10"}},"limit":10,"offset":0,"totalResults":100,"results":[{"_links":{"self":{"href":"https://api.qa.fitpay.ninja/users/a27cfa47-3fff-4063-8cbb-97e5a6591b29"}},"id":"a27cfa47-3fff-4063-8cbb-97e5a6591b29","createdTs":"2017-08-24T22:41:03.617Z","createdTsEpoch":1503614463617,"lastModifiedTs":"2017-08-24T22:41:03.617Z","lastModifiedTsEpoch":1503614463617,"encryptedData":{"encryptedDataSkipped":"encryptedData has been skipped, no fp-key-id specified"}},{"_links":{"self":{"href":"https://api.qa.fitpay.ninja/users/88ef315c-2a27-46c0-8647-c2ba2cd9542e"}},"id":"88ef315c-2a27-46c0-8647-c2ba2cd9542e","createdTs":"2017-08-24T22:41:03.478Z","createdTsEpoch":1503614463478,"lastModifiedTs":"2017-08-24T22:41:03.478Z","lastModifiedTsEpoch":1503614463478,"encryptedData":{"encryptedDataSkipped":"encryptedData has been skipped, no fp-key-id specified"}},{"_links":{"self":{"href":"https://api.qa.fitpay.ninja/users/e349bfeb-76fb-46f9-a50d-c03b631e11bf"}},"id":"e349bfeb-76fb-46f9-a50d-c03b631e11bf","createdTs":"2017-08-24T22:41:03.369Z","createdTsEpoch":1503614463369,"lastModifiedTs":"2017-08-24T22:41:03.369Z","lastModifiedTsEpoch":1503614463369,"encryptedData":{"encryptedDataSkipped":"encryptedData has been skipped, no fp-key-id specified"}},{"_links":{"self":{"href":"https://api.qa.fitpay.ninja/users/c9f9b05d-a79b-41e0-9cbe-121b95e4a5bb"}},"id":"c9f9b05d-a79b-41e0-9cbe-121b95e4a5bb","createdTs":"2017-08-24T22:41:03.362Z","createdTsEpoch":1503614463362,"lastModifiedTs":"2017-08-24T22:41:03.362Z","lastModifiedTsEpoch":1503614463362,"encryptedData":{"encryptedDataSkipped":"encryptedData has been skipped, no fp-key-id specified"}},{"_links":{"self":{"href":"https://api.qa.fitpay.ninja/users/bebdfa95-6c67-407a-9350-f025ffa8f486"}},"id":"bebdfa95-6c67-407a-9350-f025ffa8f486","createdTs":"2017-08-24T22:41:03.305Z","createdTsEpoch":1503614463305,"lastModifiedTs":"2017-08-24T22:41:03.305Z","lastModifiedTsEpoch":1503614463305,"encryptedData":{"encryptedDataSkipped":"encryptedData has been skipped, no fp-key-id specified"}},{"_links":{"self":{"href":"https://api.qa.fitpay.ninja/users/600d0cae-c660-4637-be86-b4b7021ffdec"}},"id":"600d0cae-c660-4637-be86-b4b7021ffdec","createdTs":"2017-08-24T22:41:03.272Z","createdTsEpoch":1503614463272,"lastModifiedTs":"2017-08-24T22:41:03.272Z","lastModifiedTsEpoch":1503614463272,"encryptedData":{"encryptedDataSkipped":"encryptedData has been skipped, no fp-key-id specified"}},{"_links":{"self":{"href":"https://api.qa.fitpay.ninja/users/56be3d2f-6556-49a6-a1a4-856c2a9e6543"}},"id":"56be3d2f-6556-49a6-a1a4-856c2a9e6543","createdTs":"2017-08-24T22:41:03.220Z","createdTsEpoch":1503614463220,"lastModifiedTs":"2017-08-24T22:41:03.220Z","lastModifiedTsEpoch":1503614463220,"encryptedData":{"encryptedDataSkipped":"encryptedData has been skipped, no fp-key-id specified"}},{"_links":{"self":{"href":"https://api.qa.fitpay.ninja/users/ba18c386-f348-4346-9823-2225891f89b7"}},"id":"ba18c386-f348-4346-9823-2225891f89b7","createdTs":"2017-08-24T22:41:03.072Z","createdTsEpoch":1503614463072,"lastModifiedTs":"2017-08-24T22:41:03.072Z","lastModifiedTsEpoch":1503614463072,"encryptedData":{"encryptedDataSkipped":"encryptedData has been skipped, no fp-key-id specified"}},{"_links":{"self":{"href":"https://api.qa.fitpay.ninja/users/5f8d8a44-f7f0-4686-bee5-75af7c0a4e63"}},"id":"5f8d8a44-f7f0-4686-bee5-75af7c0a4e63","createdTs":"2017-08-24T22:41:03.028Z","createdTsEpoch":1503614463028,"lastModifiedTs":"2017-08-24T22:41:03.028Z","lastModifiedTsEpoch":1503614463028,"encryptedData":{"encryptedDataSkipped":"encryptedData has been skipped, no fp-key-id specified"}},{"_links":{"self":{"href":"https://api.qa.fitpay.ninja/users/fbcd930f-45a0-4b06-b1c0-88f6fffceb95"}},"id":"fbcd930f-45a0-4b06-b1c0-88f6fffceb95","createdTs":"2017-08-24T22:41:02.954Z","createdTsEpoch":1503614462954,"lastModifiedTs":"2017-08-24T22:41:02.954Z","lastModifiedTsEpoch":1503614462954,"encryptedData":{"encryptedDataSkipped":"encryptedData has been skipped, no fp-key-id specified"}}]}